<?xml version="1.0" encoding="utf-8"?>
<!-- Generator: Adobe Illustrator 17.1.0, SVG Export Plug-In . SVG Version: 6.00 Build 0)  -->
<!DOCTYPE svg PUBLIC "-//W3C//DTD SVG 1.1//EN" "http://www.w3.org/Graphics/SVG/1.1/DTD/svg11.dtd">
<svg version="1.1" id="Layer_1" xmlns="http://www.w3.org/2000/svg" xmlns:xlink="http://www.w3.org/1999/xlink" x="0px" y="0px"
	 viewBox="0 0 23.2 22.7" enable-background="new 0 0 23.2 22.7" xml:space="preserve">
<g>
	<path fill="#010202" d="M18.9,10.8H4.2C1.9,10.8,0,12.7,0,15v3.4c0,2.3,1.9,4.2,4.2,4.2h14.7c2.3,0,4.2-1.9,4.2-4.2V15
		C23.2,12.7,21.3,10.8,18.9,10.8z M7.3,13.4H6v6.8H4.6v-6.8H3.3v-1.2h4.1V13.4z M11.2,20.2H10v-0.6c-0.2,0.2-0.4,0.4-0.7,0.5
		c-0.2,0.1-0.5,0.2-0.7,0.2c-0.3,0-0.5-0.1-0.6-0.3c-0.1-0.2-0.2-0.4-0.2-0.8v-4.9H9v4.5c0,0.1,0,0.2,0.1,0.3
		c0.1,0.1,0.1,0.1,0.2,0.1c0.1,0,0.2,0,0.3-0.1c0.1-0.1,0.3-0.2,0.4-0.3v-4.5h1.2V20.2z M15.4,19c0,0.4-0.1,0.7-0.3,1
		c-0.2,0.2-0.4,0.3-0.8,0.3c-0.2,0-0.4,0-0.6-0.1c-0.2-0.1-0.3-0.2-0.5-0.4v0.4h-1.2v-8h1.2v2.6c0.2-0.2,0.3-0.3,0.5-0.4
		c0.2-0.1,0.4-0.1,0.5-0.1c0.4,0,0.7,0.1,0.8,0.4c0.2,0.3,0.3,0.6,0.3,1.1V19z M19.5,17.5h-2.2v1.1c0,0.3,0,0.5,0.1,0.6
		c0.1,0.1,0.2,0.2,0.4,0.2c0.2,0,0.3-0.1,0.4-0.2c0.1-0.1,0.1-0.3,0.1-0.7v-0.3h1.2v0.3c0,0.6-0.1,1.1-0.4,1.4
		c-0.3,0.3-0.7,0.5-1.3,0.5c-0.5,0-0.9-0.2-1.2-0.5c-0.3-0.3-0.5-0.8-0.5-1.3V16c0-0.5,0.2-0.9,0.5-1.2c0.3-0.3,0.8-0.5,1.3-0.5
		c0.5,0,0.9,0.1,1.2,0.4c0.3,0.3,0.4,0.7,0.4,1.3V17.5z"/>
	<path fill="#010202" d="M17.8,15.3c-0.2,0-0.3,0.1-0.4,0.2c-0.1,0.1-0.1,0.3-0.1,0.5v0.6h1v-0.6c0-0.2,0-0.4-0.1-0.5
		C18.1,15.3,18,15.3,17.8,15.3z"/>
	<path fill="#010202" d="M13.7,15.2c-0.1,0-0.2,0-0.2,0.1c-0.1,0-0.2,0.1-0.2,0.2v3.7c0.1,0.1,0.2,0.2,0.3,0.2
		c0.1,0,0.2,0.1,0.3,0.1c0.1,0,0.2,0,0.3-0.1c0.1-0.1,0.1-0.2,0.1-0.4v-3c0-0.2,0-0.3-0.1-0.5C14,15.3,13.9,15.2,13.7,15.2z"/>
	<polygon fill="#010202" points="6.2,8.8 7.6,8.8 7.6,5.1 9.4,0 7.9,0 6.9,3.5 6.9,3.5 5.9,0 4.4,0 6.2,5.3 	"/>
	<path fill="#010202" d="M11.4,8.9c0.6,0,1.1-0.2,1.4-0.5c0.3-0.3,0.5-0.7,0.5-1.3V3.8c0-0.5-0.2-0.9-0.5-1.2
		c-0.3-0.3-0.8-0.5-1.3-0.5c-0.6,0-1.1,0.1-1.4,0.4C9.7,2.9,9.5,3.3,9.5,3.8v3.3c0,0.5,0.2,1,0.5,1.3C10.3,8.8,10.8,8.9,11.4,8.9z
		 M10.8,3.7c0-0.1,0.1-0.3,0.1-0.3c0.1-0.1,0.2-0.1,0.4-0.1c0.2,0,0.3,0,0.4,0.1C11.9,3.5,12,3.6,12,3.7v3.5c0,0.2-0.1,0.3-0.2,0.4
		c-0.1,0.1-0.2,0.1-0.4,0.1c-0.2,0-0.3,0-0.4-0.1c-0.1-0.1-0.1-0.2-0.1-0.4V3.7z"/>
	<path fill="#010202" d="M15.3,8.9c0.2,0,0.5-0.1,0.8-0.2c0.3-0.1,0.5-0.3,0.8-0.6v0.7h1.3V2.3h-1.3v4.9c-0.1,0.1-0.3,0.3-0.4,0.3
		c-0.1,0.1-0.3,0.1-0.4,0.1c-0.1,0-0.2,0-0.3-0.1c-0.1-0.1-0.1-0.2-0.1-0.3v-5h-1.3v5.4c0,0.4,0.1,0.7,0.2,0.9
		C14.8,8.8,15,8.9,15.3,8.9z"/>
</g>
</svg>
