<?xml version="1.0" encoding="utf-8"?>
<!-- Generator: Adobe Illustrator 17.0.0, SVG Export Plug-In . SVG Version: 6.00 Build 0)  -->
<!DOCTYPE svg PUBLIC "-//W3C//DTD SVG 1.1//EN" "http://www.w3.org/Graphics/SVG/1.1/DTD/svg11.dtd">
<svg version="1.1" id="Layer_1" xmlns="http://www.w3.org/2000/svg" xmlns:xlink="http://www.w3.org/1999/xlink" x="0px" y="0px"
	 width="595.581px" height="614.531px" viewBox="0 59.385 595.581 614.531" enable-background="new 0 59.385 595.581 614.531"
	 xml:space="preserve">
<g id="Layer_1_1_">
</g>
<g id="Layer_2">
</g>
<g id="Layer_3">
	<g>
		<path d="M297.79,673.917C133.555,673.917,0,540.362,0,376.126s133.555-297.79,297.79-297.79s297.79,133.555,297.79,297.79
			C595.28,540.362,461.726,673.917,297.79,673.917z M297.79,84.652C136.863,84.652,6.016,215.5,6.016,376.427
			S136.863,668.201,297.79,668.201s291.774-130.847,291.774-291.774C589.264,215.5,458.417,84.652,297.79,84.652z"/>
		<g>
			<g>
				<defs>
					<circle id="SVGID_1_" cx="297.79" cy="376.427" r="294.782"/>
				</defs>
				<clipPath id="SVGID_2_">
					<use xlink:href="#SVGID_1_"  overflow="visible"/>
				</clipPath>
				<polygon clip-path="url(#SVGID_2_)" points="423.825,782.505 165.138,782.505 132.953,315.966 453.905,315.966 				"/>
			</g>
		</g>
		<rect x="135.961" y="357.477" fill="#FFFFFF" width="315.237" height="3.008"/>
		<circle fill="#FFFFFF" cx="297.49" cy="520.208" r="80.012"/>
		<path d="M346.52,542.468c0-4.211-2.707-9.024-9.325-9.024s-9.024,5.715-9.325,9.625c-0.602,4.813-0.602,14.739-5.414,21.357
			c-7.219,9.926-18.95,10.528-24.365,10.528c-9.325,0-19.853-3.309-24.966-11.43c-6.016-9.024-4.211-16.243-5.114-26.771
			c-0.602-11.43-7.821-14.438-7.821-14.438s7.52-3.61,7.821-15.341c0.301-12.634,0.301-18.649,5.114-25.869
			c4.512-6.918,12.934-11.43,24.966-11.43c8.422,0,18.048,2.406,24.064,10.528c5.114,6.618,5.414,18.048,5.715,21.658
			c0.301,3.61,3.008,9.325,9.325,9.325c6.317,0,9.325-3.91,9.325-9.325c0-8.422-16.243-32.787-46.323-32.787
			c-2.707,0-6.016,0-6.016,0c-24.365,0-45.12,17.747-49.632,41.51c0,0-0.902,7.821-7.52,11.731c0,0,6.618,4.211,7.821,11.731
			c2.707,17.747,19.853,41.51,49.632,41.51c0,0,3.008,0,6.016,0C329.374,575.555,346.52,554.199,346.52,542.468z"/>
		<g>
			<g>
				<g>
					<path d="M201.836,153.836c20.755-8.422,43.014-14.138,45.12-8.723c1.203,3.008-3.309,6.618-6.618,9.024l6.016,48.729
						l-3.91,15.942l-25.869,10.528l-13.837-8.723l-0.301-0.301l-28.877-39.405c-8.122,1.203-10.227-0.602-10.528-2.106
						C161.228,173.388,181.081,162.258,201.836,153.836z"/>
				</g>
			</g>
			<g>
				<g>
					<path d="M201.836,153.836c-21.357,8.422-41.51,19.853-39.405,25.267c1.203,3.008,7.219,2.406,11.13,1.805l29.779,39.405
						l13.837,8.723l26.169-10.528l3.91-15.942v-0.301l-6.317-48.429c6.918-4.512,6.918-7.52,6.317-8.723
						C245.452,139.398,222.892,145.414,201.836,153.836z"/>
				</g>
			</g>
		</g>
		<g>
			<g>
				<g>
					<path d="M320.651,308.446c-16.845-14.739-32.185-31.885-28.275-36.397c2.106-2.406,7.52,0,11.13,1.805l40.909-27.373
						l15.942-3.91l21.056,18.349l-1.504,16.243v0.301L357.95,321.08c4.813,6.618,3.91,9.325,3.008,10.528
						C356.747,336.12,337.496,323.186,320.651,308.446z"/>
				</g>
			</g>
			<g>
				<g>
					<path d="M320.651,308.747c17.146,15.04,36.397,27.974,40.307,23.763c2.106-2.406-0.902-7.52-3.61-10.829l21.657-44.217
						l1.504-16.243l-21.357-18.65l-15.942,3.61l-0.301,0.301l-40.307,27.373c-7.219-3.91-9.926-2.707-10.829-1.805
						C288.165,276.261,303.506,293.707,320.651,308.747z"/>
				</g>
			</g>
		</g>
		<g>
			<g>
				<g>
					<path d="M343.211,135.187c-21.056,7.821-43.616,12.634-45.421,7.219c-1.203-3.008,3.61-6.618,6.918-8.723l-4.211-49.03
						l4.512-15.642l25.869-9.626l13.536,9.325l0.301,0.301l27.673,40.307c8.122-1.203,10.227,0.902,10.528,2.406
						C384.721,116.838,364.267,127.366,343.211,135.187z"/>
				</g>
			</g>
			<g>
				<g>
					<path d="M343.512,135.187c21.357-7.821,42.112-18.65,40.006-23.763c-1.203-3.008-6.918-2.707-11.13-2.106l-28.275-40.307
						l-13.536-9.325l-26.771,9.626l-4.512,15.942v0.301l4.512,48.729c-6.918,4.512-7.219,7.219-6.618,8.723
						C299.294,148.121,321.854,143.007,343.512,135.187z"/>
				</g>
			</g>
		</g>
	</g>
</g>
</svg>
